{
	"access": {
		"apid": "83c2c355066d6dcc60f169d10b2c0823"
	},
	"url": {
		"base":  "/dmf/services/",
		"dev":  "/dmf/services/"
	},
	"endpoint": {
		"getStoreList": "getStoreList",
		"authUser": "authUser",
		"getTransaction": "getTransaction",
		"getCreditNotePDF": "getCreditNotePDF",
		"uploadFile": "uploadFile",
		"getCustomer": "getCustomer",
		"addCustomer": "addCustomer",
		"saveCreditNote": "saveCreditNote",
		"getCreditNotes": "getCreditNotes",
		"getCreditNoteData": "getCreditNoteData",
		"getRegiones": "getRegiones",
		"getFile": "getFile",
		"getCiudades":"getCiudades",
		"getComunas":"getComunas",
		"getMotivos": "getMotivos",
		"getTiposPago":"getTiposPago",
		"getCreditNote":"getCreditNote",
		"injectCreditNote": "injectCreditNote",
		"deleteFile":"deleteFile",
		"getCreditNotesRut":"getCreditNotesRut",
		"getFormatos":"getFormatos",
		"getReasons":"getReasons",
		"getMercados":"getMercados",
		"getDiffReport":"getDiffReport",
		"getFixedFile":"getFixedFile"


	
	},

	"noImplicitAny": false
}

